{
	"info": {
		"_postman_id": "2c8c60da-002f-410e-9d64-a53903848a70",
		"name": "RestDiary",
		"schema": "https://schema.getpostman.com/json/collection/v2.1.0/collection.json"
	},
	"item": [
		{
			"name": "Get an authentication token",
			"request": {
				"auth": {
					"type": "basic",
					"basic": [
						{
							"key": "password",
							"value": "secret",
							"type": "string"
						},
						{
							"key": "username",
							"value": "client",
							"type": "string"
						}
					]
				},
				"method": "POST",
				"header": [
					{
						"key": "Accept",
						"value": "application/json"
					},
					{
						"key": "Content-Type",
						"value": "application/x-www-form-urlencoded"
					}
				],
				"body": {
					"mode": "urlencoded",
					"urlencoded": [
						{
							"key": "grant_type",
							"value": "password",
							"type": "text"
						},
						{
							"key": "username",
							"value": "admin",
							"type": "text"
						},
						{
							"key": "password",
							"value": "admin",
							"type": "text"
						}
					]
				},
				"url": {
					"raw": "http://localhost:8080/app/rest/v2/oauth/token",
					"protocol": "http",
					"host": [
						"localhost"
					],
					"port": "8080",
					"path": [
						"app",
						"rest",
						"v2",
						"oauth",
						"token"
					]
				},
				"description": "Gets an authentication token.\n\nThe endpoint is protected with the basic authentication. The request must contain an `Authorization`\nheader for basic authentication with REST API client credentials. Please note, that client credentials\nis not the same as platform user credentials. By client we mean an application that uses the REST API.\nThe default client credentials are defined by the following application properties: `cuba.rest.client.id` and `cuba.rest.client.secret`.\nUser credentials must be passed in the request body. The request format must be `application/x-www-form-urlencoded`.\n\nTo disable refresh tokens for the default client, remove the refresh_token type from the\n`cuba.rest.client.authorizedGrantTypes` application property value.\n"
			},
			"response": [
				{
					"name": "Get an authentication token",
					"originalRequest": {
						"method": "POST",
						"header": [
							{
								"key": "Accept",
								"value": "application/json"
							},
							{
								"key": "Content-Type",
								"value": "application/x-www-form-urlencoded"
							}
						],
						"body": {
							"mode": "urlencoded",
							"urlencoded": [
								{
									"key": "grant_type",
									"value": "password",
									"type": "text"
								},
								{
									"key": "username",
									"value": "admin",
									"type": "text"
								},
								{
									"key": "password",
									"value": "admin",
									"type": "text"
								}
							]
						},
						"url": {
							"raw": "http://localhost:8085/app/rest/v2/oauth/token",
							"protocol": "http",
							"host": [
								"localhost"
							],
							"port": "8085",
							"path": [
								"app",
								"rest",
								"v2",
								"oauth",
								"token"
							]
						}
					},
					"status": "Unauthorized",
					"code": 401,
					"_postman_previewlanguage": "json",
					"header": [
						{
							"key": "Cache-Control",
							"value": "no-store"
						},
						{
							"key": "Pragma",
							"value": "no-cache"
						},
						{
							"key": "WWW-Authenticate",
							"value": "Bearer realm=\"oauth\", error=\"unauthorized\", error_description=\"Full authentication is required to access this resource\""
						},
						{
							"key": "X-XSS-Protection",
							"value": "1; mode=block"
						},
						{
							"key": "X-Frame-Options",
							"value": "DENY"
						},
						{
							"key": "X-Content-Type-Options",
							"value": "nosniff"
						},
						{
							"key": "Content-Type",
							"value": "application/json;charset=UTF-8"
						},
						{
							"key": "Transfer-Encoding",
							"value": "chunked"
						},
						{
							"key": "Date",
							"value": "Thu, 01 Nov 2018 10:46:58 GMT"
						}
					],
					"cookie": [],
					"body": "{\n    \"error\": \"unauthorized\",\n    \"error_description\": \"Full authentication is required to access this resource\"\n}"
				}
			]
		},
		{
			"name": "Все студенты (базовый)",
			"request": {
				"auth": {
					"type": "bearer",
					"bearer": [
						{
							"key": "token",
							"value": "ccff3532-675a-4e40-bc2f-7062bc4995d9",
							"type": "string"
						}
					]
				},
				"method": "GET",
				"header": [],
				"body": {
					"mode": "raw",
					"raw": ""
				},
				"url": {
					"raw": "http://localhost:8080/app/rest/v2/entities/diary$Student",
					"protocol": "http",
					"host": [
						"localhost"
					],
					"port": "8080",
					"path": [
						"app",
						"rest",
						"v2",
						"entities",
						"diary$Student"
					],
					"query": [
						{
							"key": "studentId",
							"value": "2D6CF08D-C795-4943-B950-B905364E2DE8",
							"disabled": true
						},
						{
							"key": "subjectId",
							"value": "78DEE2D0-4725-400C-BED7-DF37F5CC495C",
							"disabled": true
						}
					]
				},
				"description": "Все студенты в полном виде"
			},
			"response": []
		},
		{
			"name": "Все студенты в полном виде",
			"request": {
				"auth": {
					"type": "bearer",
					"bearer": [
						{
							"key": "token",
							"value": "ccff3532-675a-4e40-bc2f-7062bc4995d9",
							"type": "string"
						}
					]
				},
				"method": "GET",
				"header": [],
				"body": {
					"mode": "raw",
					"raw": ""
				},
				"url": {
					"raw": "http://localhost:8080/app/rest/v2/queries/diary$Student/all?view=full",
					"protocol": "http",
					"host": [
						"localhost"
					],
					"port": "8080",
					"path": [
						"app",
						"rest",
						"v2",
						"queries",
						"diary$Student",
						"all"
					],
					"query": [
						{
							"key": "studentId",
							"value": "2D6CF08D-C795-4943-B950-B905364E2DE8",
							"disabled": true
						},
						{
							"key": "subjectId",
							"value": "78DEE2D0-4725-400C-BED7-DF37F5CC495C",
							"disabled": true
						},
						{
							"key": "view",
							"value": "full"
						}
					]
				},
				"description": "Все студенты в полном виде"
			},
			"response": []
		},
		{
			"name": "оценки конкретного студента",
			"request": {
				"auth": {
					"type": "bearer",
					"bearer": [
						{
							"key": "token",
							"value": "e8877e40-7798-4cca-91d5-63f9e7f66391",
							"type": "string"
						}
					]
				},
				"method": "GET",
				"header": [
					{
						"key": "Authorization",
						"type": "text",
						"value": "Bearer 6e652aef-e3cb-4fc1-aea4-00d3bc2a5bfd",
						"disabled": true
					}
				],
				"body": {
					"mode": "raw",
					"raw": ""
				},
				"url": {
					"raw": "http://localhost:8080/app/rest/v2/queries/diary$Mark/forStudent?studentId=1db01e70-01c0-4f95-a73d-7d739fc9f66d",
					"protocol": "http",
					"host": [
						"localhost"
					],
					"port": "8080",
					"path": [
						"app",
						"rest",
						"v2",
						"queries",
						"diary$Mark",
						"forStudent"
					],
					"query": [
						{
							"key": "studentId",
							"value": "1db01e70-01c0-4f95-a73d-7d739fc9f66d"
						}
					]
				}
			},
			"response": []
		},
		{
			"name": "оценки студента по предмету",
			"request": {
				"auth": {
					"type": "bearer",
					"bearer": [
						{
							"key": "token",
							"value": "ccff3532-675a-4e40-bc2f-7062bc4995d9",
							"type": "string"
						}
					]
				},
				"method": "GET",
				"header": [
					{
						"warning": "This is a duplicate header and will be overridden by the Authorization header generated by Postman.",
						"key": "Authorization",
						"type": "text",
						"value": "Bearer 3d3dbe71-5faf-4fc8-9f5b-bbea144c2204",
						"disabled": true
					}
				],
				"body": {
					"mode": "raw",
					"raw": ""
				},
				"url": {
					"raw": "http://localhost:8080/app/rest/v2/queries/diary$Mark/idsForStudentAndSubject?studentId=2D6CF08D-C795-4943-B950-B905364E2DE8&subjectId=78DEE2D0-4725-400C-BED7-DF37F5CC495C",
					"protocol": "http",
					"host": [
						"localhost"
					],
					"port": "8080",
					"path": [
						"app",
						"rest",
						"v2",
						"queries",
						"diary$Mark",
						"idsForStudentAndSubject"
					],
					"query": [
						{
							"key": "studentId",
							"value": "2D6CF08D-C795-4943-B950-B905364E2DE8"
						},
						{
							"key": "subjectId",
							"value": "78DEE2D0-4725-400C-BED7-DF37F5CC495C"
						}
					]
				}
			},
			"response": []
		},
		{
			"name": "Удалить все оценки конкретного учащегося",
			"request": {
				"method": "GET",
				"header": [],
				"body": {
					"mode": "raw",
					"raw": ""
				},
				"url": {
					"raw": ""
				}
			},
			"response": []
		}
	]
}